<?xml version="1.0" encoding="UTF-8"?>
<svg width="126px" height="80px" viewBox="0 0 126 80" version="1.1" xmlns="http://www.w3.org/2000/svg" xmlns:xlink="http://www.w3.org/1999/xlink">
    <!-- Generator: Sketch 44.1 (41455) - http://www.bohemiancoding.com/sketch -->
    <title>chevron21icon</title>
    <desc>Created with Sketch.</desc>
    <defs></defs>
    <g id="Symbols" stroke="none" stroke-width="1" fill="none" fill-rule="evenodd">
        <g id="chevron21" fill="#9B9B9B">
            <path d="M123.452,9.121 L117.343,3.01 C115.225,1.001 112.753,-0.004 109.93,-0.004 C107.05,-0.004 104.606,1.001 102.596,3.01 L63,42.607 L23.404,3.011 C21.394,1.002 18.95,-0.003 16.071,-0.003 C13.247,-0.003 10.775,1.002 8.657,3.011 L2.628,9.122 C0.564,11.185 -0.468,13.657 -0.468,16.536 C-0.468,19.469 0.565,21.913 2.628,23.868 L55.667,76.907 C57.623,78.971 60.066,80.003 63,80.003 C65.879,80.003 68.35,78.971 70.413,76.907 L123.452,23.868 C125.462,21.858 126.468,19.414 126.468,16.536 C126.468,13.711 125.462,11.24 123.452,9.121 L123.452,9.121 Z" id="Shape"></path>
        </g>
    </g>
</svg>