[
{
    "model": "parlamento.comissao",
    "pk": 2,
    "fields": {
        "id_api": 34,
        "nome": "Comiss\u00e3o de Constitui\u00e7\u00e3o, Justi\u00e7a e Cidadania",
        "sigla": "CCJ",
        "link": "http://legis.senado.leg.br/comissoes/comissao;jsessionid=E1D1FCDB9D9393B436C4D9A29619BA20?0&codcol=34",
        "tipo": "Comiss\u00e3o Permanente"
    }
},
{
    "model": "parlamento.comissao",
    "pk": 3,
    "fields": {
        "id_api": 2003,
        "nome": "Comiss\u00e3o de Constitui\u00e7\u00e3o e Justi\u00e7a e de Cidadania",
        "sigla": "CCJC",
        "link": "http://www2.camara.leg.br/atividade-legislativa/comissoes/comissoes-permanentes/ccjc",
        "tipo": "Comiss\u00e3o Permanente"
    }
}
]
